COPIAMOS 


COMPILAR:
sudo make -C /lib/modules/3.12-1-amd64/build/ M=/home/braisarias/FIC/dso/git/p3/mouse/it1/mouse/ modules

CARGAR MODULO:
$ sudo insmod psmouse.ko

QUITAR MODULO
$ sudo rmmod psmouse.ko


$ sudo cat /var/log/kern.log
...
Jan 16 19:31:06 thrain kernel: [ 4031.390269] psmouse serio1: synaptics: serio: Synaptics pass-through port at isa0060/serio1/input0
Jan 16 19:31:06 thrain kernel: [ 4031.428047] input: SynPS/2 Synaptics TouchPad as /devices/platform/i8042/serio1/input/input664
Jan 16 19:31:09 thrain kernel: [ 4034.172978] psmouse serio5: alps: Unknown ALPS touchpad: E7=10 00 64, EC=10 00 64
Jan 16 19:31:10 thrain kernel: [ 4035.407537] psmouse serio5: trackpoint: IBM TrackPoint firmware: 0x0e, buttons: 3/3
Jan 16 19:31:10 thrain kernel: [ 4035.611265] input: TPPS/2 IBM TrackPoint as /devices/platform/i8042/serio1/serio5/input/input665



Drivers:
alps
synaptics (o meu TouchPad)

PARA IMPRIMIR NO DRIVER E SAIA NO LOG:
printk(KERN_INFO "**** hello world! *******\n");



$ sudo cat /var/log/kern.log
...
Jan 17 14:44:22 thrain kernel: [  272.462307] * report buttons *
Jan 17 14:44:22 thrain kernel: [  272.474814] * process packet *
Jan 17 14:44:22 thrain kernel: [  272.474822] * report buttons *
Jan 17 14:44:22 thrain kernel: [  272.487254] * process packet *
Jan 17 14:44:22 thrain kernel: [  272.487275] * report buttons *
Jan 17 14:44:22 thrain kernel: [  272.498653] * process packet *
Jan 17 14:44:22 thrain kernel: [  272.498662] * report buttons *





